C:\Users\huzaifa\IdeaProjects\java_learnable1\src\main\java\com\db\application\iapp.java
C:\Users\huzaifa\IdeaProjects\java_learnable1\src\main\java\com\db\application\Applicationimpl.java
C:\Users\huzaifa\IdeaProjects\java_learnable1\src\main\java\com\db\application\ApplicationLauncher.java
